{
  "meta": {
    "totalPages": 2,
    "totalItems": 3,
    "pageNumber": 1,
    "pageSize": 2
  },
  "data": [
    {
      "id": 3,
      "type": "clubs",
      "attributes": {
        "name": "Norwich City"
      },
      "relationships": {
        "players": {
          "links": {
            "related": "{{base-uri}}/clubs/3/players?pageNumber=0&pageSize=2"
          }
        }
      },
      "links": {
        "self": "{{base-uri}}/clubs/3"
      }
    }
  ],
  "links": {
    "self": "{{base-uri}}/clubs?pageNumber=1&pageSize=2",
    "first": "{{base-uri}}/clubs?pageNumber=0&pageSize=2",
    "last": "{{base-uri}}/clubs?pageNumber=1&pageSize=2",
    "previous": "{{base-uri}}/clubs?pageNumber=0&pageSize=2"
  }
}