{
  "meta": {
    "totalPages": 2,
    "totalItems": 3,
    "pageNumber": 0,
    "pageSize": 2
  },
  "data": [
    {
      "id": 1,
      "type": "clubs",
      "attributes": {
        "name": "Leeds United"
      },
      "relationships": {
        "players": {
          "links": {
            "related": "{{base-uri}}/clubs/1/players?pageNumber=0&pageSize=2"
          }
        }
      },
      "links": {
        "self": "{{base-uri}}/clubs/1"
      }
    },
    {
      "id": 2,
      "type": "clubs",
      "attributes": {
        "name": "Derby County"
      },
      "relationships": {
        "players": {
          "links": {
            "related": "{{base-uri}}/clubs/2/players?pageNumber=0&pageSize=2"
          }
        }
      },
      "links": {
        "self": "{{base-uri}}/clubs/2"
      }
    }
  ],
  "links": {
    "self": "{{base-uri}}/clubs?pageNumber=0&pageSize=2",
    "first": "{{base-uri}}/clubs?pageNumber=0&pageSize=2",
    "last": "{{base-uri}}/clubs?pageNumber=1&pageSize=2",
    "next": "{{base-uri}}/clubs?pageNumber=1&pageSize=2"
  }
}